<?xml version="1.0" encoding="utf-8"?>
<!-- Generator: Adobe Illustrator 16.0.0, SVG Export Plug-In . SVG Version: 6.00 Build 0)  -->
<!DOCTYPE svg PUBLIC "-//W3C//DTD SVG 1.1//EN" "http://www.w3.org/Graphics/SVG/1.1/DTD/svg11.dtd">
<svg version="1.1" id="Layer_1" xmlns="http://www.w3.org/2000/svg" xmlns:xlink="http://www.w3.org/1999/xlink" x="0px" y="0px"
	 width="370.593px" height="69.84px" viewBox="0 0 370.593 69.84" enable-background="new 0 0 370.593 69.84" xml:space="preserve">
<path fill="#FFFFFF" d="M1,1.561h11.701v9.49h0.26C15.951,4.55,23.751,0,33.241,0c11.96,0,22.361,7.15,22.361,23.531v39.651h-11.7
	V26.781c0-11.57-6.63-15.86-14.041-15.86c-9.75,0-17.16,6.24-17.16,20.54v31.722H1V1.561z"/>
<path fill="#FFFFFF" d="M73.62,36.663c0,10.789,10.01,17.939,20.801,17.939c7.15,0,12.351-3.641,16.901-9.23l8.84,6.76
	c-6.5,8.451-15.47,12.611-27.301,12.611c-19.501,0-31.721-14.041-31.721-32.372C61.14,13.911,74.53,0,92.991,0
	c21.711,0,30.031,16.641,30.031,32.502v4.161H73.62z M110.542,27.301c-0.26-10.27-5.98-17.94-17.811-17.94
	c-11.57,0-19.111,9.751-19.111,17.94H110.542z"/>
<path fill="#FFFFFF" d="M145.46,30.291l-21.84-28.73h15.08l14.951,21.841l14.691-21.841h14.17l-21.061,28.73l24.96,32.892h-15.081
	L153.13,37.312l-18.2,25.871H120.5L145.46,30.291z"/>
<path fill="#FFFFFF" d="M189.529,1.561h10.922v9.62h0.26C201.88,7.541,209.419,0,220.47,0c9.101,0,15.341,3.9,19.24,11.44
	C243.742,3.9,251.8,0,259.212,0c18.979,0,23.399,13.521,23.399,27.301v35.882h-11.7V28.861c0-9.36-1.949-17.94-13.261-17.94
	s-15.729,7.67-15.729,18.591v33.671H230.22V30.941c0-11.7-1.689-20.021-13-20.021c-8.45,0-15.99,6.37-15.99,20.28v31.981h-11.701
	V1.561z"/>
<path fill="none" d="M305.402,32.371c0,12.48,7.801,21.452,20.281,21.452s20.281-8.972,20.281-21.452s-7.801-21.45-20.281-21.45
	v21.45H305.402z"/>
<linearGradient id="SVGID_1_" gradientUnits="userSpaceOnUse" x1="302.8716" y1="7.9736" x2="351.6239" y2="42.1104" gradientTransform="matrix(-1 0 0 1 651.3975 0)">
	<stop  offset="0.2521" style="stop-color:#FFFFFF"/>
	<stop  offset="0.4052" style="stop-color:#FFFFFF;stop-opacity:0.57"/>
	<stop  offset="0.7237" style="stop-color:#FFFFFF;stop-opacity:0"/>
</linearGradient>
<path fill="url(#SVGID_1_)" d="M325.683,0.001L325.683,0.001c0.005-0.001,0.011,0,0.016,0s0.011,0,0.016,0v0.001
	c18.315,0.016,32.73,14.44,32.73,32.37h-12.48c-0.001-12.475-7.795-21.442-20.266-21.45c-12.472,0.008-20.266,8.975-20.266,21.45
	h-12.479C292.953,14.441,307.367,0.017,325.683,0.001z"/>
<linearGradient id="SVGID_2_" gradientUnits="userSpaceOnUse" x1="302.8247" y1="56.7437" x2="351.5103" y2="22.6537">
	<stop  offset="0.3572" style="stop-color:#FFFFFF"/>
	<stop  offset="0.4454" style="stop-color:#FFFFFF;stop-opacity:0.57"/>
	<stop  offset="0.6541" style="stop-color:#FFFFFF;stop-opacity:0"/>
</linearGradient>
<path fill="url(#SVGID_2_)" d="M358.314,32.371h-12.48c0,12.458-7.774,21.417-20.215,21.449
	c-12.442-0.032-20.217-8.99-20.217-21.449h-12.48c0,17.898,14.364,32.299,32.631,32.369v0.003c0.022,0,0.044-0.002,0.066-0.002
	c0.021,0,0.043,0.002,0.065,0.002V64.74C343.951,64.67,358.314,50.269,358.314,32.371z"/>
<polygon fill="#FFFFFF" points="286.757,33.205 311.812,33.205 299.303,20.906 "/>
<polygon fill="#FFFFFF" points="364.867,31.704 339.812,31.704 352.321,44.002 "/>
<ellipse fill="#FFFFFF" cx="325.867" cy="32.361" rx="7.168" ry="7.68"/>
</svg>
